WeightClassKg,Sex,Division,Place,Name,CyrillicName,BirthDate,BodyweightKg,Best3SquatKg,Best3BenchKg,Best3DeadliftKg,TotalKg,Event,Equipment
59,M,Student,1,Igor Dorokhin,Ігор Дорохін,1996-10-31,58.72,130,107.5,190,427.5,SBD,Raw
59,M,Student,2,Edgar Dovgiy,Едгар Довгий,1996-06-06,58.92,140,107.5,180,427.5,SBD,Raw
59,M,Student,3,Andriy Minyayluk,Андрій Міняйлук,1999-03-02,58.64,122.5,107.5,160,390,SBD,Raw
59,M,Student,4,Sergiy-Zenoviy Lisik,Сергій-Зеновій Лисик,1998-02-22,58.74,127.5,80,150,357.5,SBD,Raw
59,M,Student,G,Vadim Gutnik,Вадим Гутник,1999-06-11,58.78,145,95,175,415,SBD,Raw
66,M,Student,1,Ivan Kuklishin,Іван Куклишин,1996-07-02,65.9,197.5,95,210,502.5,SBD,Raw
66,M,Student,2,Valeriy Dudash,Валерій Дудаш,1995-12-29,65,157.5,110,212.5,480,SBD,Raw
66,M,Student,3,Vasil Mikityak,Василь Микитяк,1995-08-23,64.95,160,117.5,190,467.5,SBD,Raw
66,M,Student,4,Maksim Pantsir,Максим Панцир,1997-01-03,62.6,130,102.5,170,402.5,SBD,Raw
74,M,Student,1,Svyatoslav Tatarin,Святослав Татарин,1997-03-19,74,190,135,257.5,582.5,SBD,Raw
74,M,Student,2,Roman Dorokhin,Роман Дорохін,1996-01-10,73.8,197.5,117.5,240,555,SBD,Raw
74,M,Student,3,Maksim Ofitsinskiy,Максим Офіцинський,1997-06-09,73.3,205,132.5,215,552.5,SBD,Raw
74,M,Student,4,Andriy Dakh,Андрій Дах,1996-12-08,73.5,180,145,217.5,542.5,SBD,Raw
74,M,Student,5,Vadim Shvets,Вадим Швець,1997-02-26,73.8,185,125,212.5,522.5,SBD,Raw
74,M,Student,6,Vadim Yarzhemskiy,Вадим Яржемський,1999-03-30,70.1,170,140,200,510,SBD,Raw
74,M,Student,7,Anton Umanskiy,Антон Уманський,1994-08-04,73.7,200,105,205,510,SBD,Raw
74,M,Student,8,Maksim Kostrubyak,Максим Кострубяк,1993-10-31,73.1,177.5,122.5,190,490,SBD,Raw
74,M,Student,9,Oleksandr Kolomoets,Олександр Коломоєць,1996-11-20,72.8,162.5,102.5,210,475,SBD,Raw
74,M,Student,10,Valeriy Oleksenko,Валерій Олексенко,1997-11-21,73.7,147.5,132.5,187.5,467.5,SBD,Raw
74,M,Student,11,Vitaliy Lopata,Віталій Лопата,1997-10-17,72.2,165,105,190,460,SBD,Raw
74,M,Student,12,Mikola Veremchuk,Микола Веремчук,1996-12-19,72.1,165,107.5,175,447.5,SBD,Raw
74,M,Student,13,Petro Goldun,Петро Голдун,1997-09-21,69.7,140,115,165,420,SBD,Raw
83,M,Student,1,Bladislav Stupachenko,Бладислав Ступаченко,1995-04-14,81.7,227.5,175,257.5,660,SBD,Raw
83,M,Student,2,Pavlo Misnik,Павло Мисник,1995-07-17,82.1,205,167.5,260,632.5,SBD,Raw
83,M,Student,3,Viktor Gladkiy,Віктор Гладкий,1998-01-01,82.95,207.5,155,265,627.5,SBD,Raw
83,M,Student,4,Volodimir Vovk,Володимир Вовк,1994-01-29,82.75,200,157.5,265,622.5,SBD,Raw
83,M,Student,5,Oleg Palyarush,Олег Паляруш,1995-02-25,82.45,210,157.5,230,597.5,SBD,Raw
83,M,Student,6,Sergiy Pakalo,Сергій Пакало,1994-03-26,82.75,215,125,240,580,SBD,Raw
83,M,Student,7,Vladislav Shevchenko,Владислав Шевченко,1995-04-30,82.8,150,127.5,225,502.5,SBD,Raw
83,M,Student,8,Mikola Semen,Микола Семен,1996-08-02,77.7,170,125,200,495,SBD,Raw
93,M,Student,1,Evgen Petrem,Євген Петремь,1995-12-21,91.4,267.5,130,277.5,675,SBD,Raw
93,M,Student,2,Mikhaylo Demchenko,Михайло Демченко,1995-09-22,91,245,130,280,655,SBD,Raw
93,M,Student,3,Oleg Dudchenko,Олег Дудченко,1996-05-14,91.6,230,145,280,655,SBD,Raw
93,M,Student,4,Denis Gangur,Денис Гангур,1996-11-02,93,227.5,135,280,642.5,SBD,Raw
93,M,Student,5,Oleg Martinets,Олег Мартинець,1994-02-27,90.5,217.5,157.5,260,635,SBD,Raw
93,M,Student,6,Ivan Seletskiy,Іван Селецький,1994-01-18,92.85,215,167.5,245,627.5,SBD,Raw
93,M,Student,7,Oleksandr Gangur,Олександр Гангур,1999-07-03,89.5,225,120,260,605,SBD,Raw
93,M,Student,G,Vasil Balazh,Василь Балаж,1988-03-15,90.5,215,140,235,590,SBD,Raw
105,M,Student,1,Volodimir Zakharkiv,Володимир Захарків,1996-10-06,99.65,227.5,185,270,682.5,SBD,Raw
105,M,Student,2,Oleksandr Gordiychuk,Олександр Гордійчук,1996-09-04,102.75,250,162.5,255,667.5,SBD,Raw
105,M,Student,3,Vitaliy Troyan,Віталій Троян,1994-07-18,96.5,245,155,250,650,SBD,Raw
105,M,Student,4,Oleksandr Mosiychuk,Олександр Мосійчук,1996-05-07,97.45,212.5,175,240,627.5,SBD,Raw
105,M,Student,5,Taras Klimkiv,Тарас Климків,1996-03-24,96,232.5,135,255,622.5,SBD,Raw
105,M,Student,6,Andriy Derenovskiy,Андрій Дереновський,1996-03-29,103.75,227.5,162.5,225,615,SBD,Raw
120,M,Student,1,Viktor Melnik,Віктор Мельник,1994-08-16,109.7,235,145,270,650,SBD,Raw
120,M,Student,2,Oleksandr Lesko,Олександр Лесько,1996-01-17,105.55,210,135,250,595,SBD,Raw
120,M,Student,3,Andriy Ilїn,Андрій Ільїн,1999-07-17,105.05,215,147.5,230,592.5,SBD,Raw
120,M,Student,4,Artem Tsesarskiy,Артем Цесарський,1998-12-22,115.45,222.5,145,212.5,580,SBD,Raw
120,M,Student,5,Ivan Kuzmich,Іван Кузьмич,1994-06-28,105.95,192.5,155,215,562.5,SBD,Raw
120,M,Student,6,Evgen Radchenko,Євген Радченко,1999-05-14,115.65,187.5,122.5,190,500,SBD,Raw
120+,M,Student,1,Dmitro Vovk,Дмитро Вовк,1996-01-04,122.7,260,200,260,720,SBD,Raw
47,F,Student,1,Tetyana Shchzvinska,Тетяна Щзвінська,1996-10-03,46.94,87.5,67.5,112.5,267.5,SBD,Raw
47,F,Student,2,Dariya Brazhnik,Дарія Бражник,1997-04-28,42.78,75,42.5,80,197.5,SBD,Raw
52,F,Student,1,Oksana Gronovich,Оксана Гронович,1994-01-01,51.64,115,67.5,157.5,340,SBD,Raw
52,F,Student,2,Mariya Royko,Марія Ройко,1999-08-21,50.96,100,65,120,285,SBD,Raw
52,F,Student,3,Nataliya Savula,Наталія Савула,1998-06-24,51.18,95,55,117.5,267.5,SBD,Raw
52,F,Student,4,Ruslanz Gerilo,Русланз Герило,1997-12-31,51.64,87.5,37.5,110,235,SBD,Raw
57,F,Student,1,Marina Furman,Марина Фурман,1997-03-31,57,117.5,75,152.5,345,SBD,Raw
57,F,Student,2,Olga Skaletska,Ольга Скалецька,1999-02-05,56.2,115,60,135,310,SBD,Raw
57,F,Student,3,Anastasiya Kravchenko,Анастасія Кравченко,1998-03-28,56.52,110,67.5,132.5,310,SBD,Raw
57,F,Student,4,Alina Morgach,Аліна Моргач,1997-02-02,57,100,57.5,122.5,280,SBD,Raw
57,F,Student,5,Sofiya Bzbilyas,Софія Бзбіляс,1997-09-19,56.72,92.5,55,117.5,265,SBD,Raw
63,F,Student,1,Dariya Iskiv,Дарія Іськів,1999-03-31,62.45,122.5,75,147.5,345,SBD,Raw
63,F,Student,2,Olga Chop,Ольга Чоп,1993-03-06,63,107.5,82.5,142.5,332.5,SBD,Raw
63,F,Student,3,Yuliya Osiїk,Юлія Осіїк,1998-04-22,59.84,112.5,62.5,140,315,SBD,Raw
63,F,Student,4,Kristina Narishkina,Крістіна Наришкіна,1999-03-13,62.75,107.5,65,122.5,295,SBD,Raw
63,F,Student,5,Diana Danilishin,Діана Данилишин,1999-02-11,58.46,82.5,57.5,100,240,SBD,Raw
72,F,Student,1,Vasilisa Oniїtsenko,Василиса Оніїценко,1993-12-26,63.05,130,72.5,150,352.5,SBD,Raw
72,F,Student,2,Yuliya Grigorenko,Юлія Григоренко,1996-02-03,63.1,107.5,65,135,307.5,SBD,Raw
72,F,Student,3,Polina Rizhik,Поліна Рижик,1998-04-14,69.15,105,52.5,122.5,280,SBD,Raw
72,F,Student,4,Valeriya Tsutsman,Валерія Цуцман,1996-01-24,66.9,95,55,112.5,262.5,SBD,Raw
84,F,Student,1,Yuliya Marinenko,Юлія Мариненко,1995-09-01,83.15,130,65,140,335,SBD,Raw
84,F,Student,2,Tetyana Dzhioeva,Тетяна Джіоєва,1996-08-09,72.2,70,57.5,80,207.5,SBD,Raw
