Division,WeightClassKg,Place,Name,Team,BodyweightKg,Best3SquatKg,Best3BenchKg,Best3DeadliftKg,TotalKg,Equipment,Event,Sex
Boys,51.71,1,Cody Villa,Crawford,51.26,124.74,86.18,163.29,374.21,Single-ply,SBD,M
Boys,51.71,2,Jake Robertson,Clifton,50.53,140.61,79.38,138.35,358.34,Single-ply,SBD,M
Boys,55.79,3,Tyler Dews,Gatesville,51.89,99.79,47.63,102.06,249.48,Single-ply,SBD,M
Boys,51.71,4,Mason Matthews,Gatesville,48.44,97.52,49.9,97.52,244.94,Single-ply,SBD,M
Boys,51.71,5,Josh Olsen,Clifton,48.26,86.18,49.9,83.91,219.99,Single-ply,SBD,M
Boys,51.71,6,Daylan Wiethorn,West,47.81,65.77,45.36,99.79,210.92,Single-ply,SBD,M
Boys,51.71,DQ,Hector Jaramillio,Franklin,50.98,145.15,,,,Single-ply,SBD,M
Boys,55.79,1,Miguel Contreras,Robinson,53.98,154.22,83.91,163.29,401.43,Single-ply,SBD,M
Boys,55.79,2,Darius Jackson,Robinson,52.34,138.35,88.45,151.95,378.75,Single-ply,SBD,M
Boys,55.79,3,Erik Larsen,China Spring,55.79,97.52,70.31,120.2,288.03,Single-ply,SBD,M
Boys,55.79,4,River Dowling,Caldwell,52.62,97.52,49.9,106.59,254.01,Single-ply,SBD,M
Boys,55.79,5,Rodrigo Hernandez,Caldwell,52.8,86.18,56.7,102.06,244.94,Single-ply,SBD,M
Boys,59.87,1,Victor Aguilar,Caldwell,57.61,226.8,127.01,204.12,557.92,Single-ply,SBD,M
Boys,59.87,2,Sean Gibson,Whitney,59.42,165.56,97.52,206.38,469.47,Single-ply,SBD,M
Boys,59.87,3,Willie Ihlenfeldt,Caldwell,56.88,147.42,99.79,163.29,410.5,Single-ply,SBD,M
Boys,67.13,4,Cory Sauer,Robinson,60.06,154.22,104.33,151.95,410.5,Single-ply,SBD,M
Boys,59.87,5,Colton Bauer,Lorena,59.24,129.27,74.84,142.88,347,Single-ply,SBD,M
Boys,59.87,6,Nathaniel Aviles,Bruceville-Eddy,59.03,129.27,70.31,138.35,337.93,Single-ply,SBD,M
Boys,59.87,7,Sam Brock,China Spring,59.33,104.33,77.11,136.08,317.51,Single-ply,SBD,M
Boys,59.87,8,Dylan Fuschino,Waco Connally,57.42,120.2,63.5,131.54,315.25,Single-ply,SBD,M
Boys,59.87,9,Joseph Bravo,Waco Reicher Catholic,58.79,108.86,70.31,136.08,315.25,Single-ply,SBD,M
Boys,59.87,10,Nolan Jackson,Lorena,59.15,124.74,63.5,122.47,310.71,Single-ply,SBD,M
Boys,59.87,11,Dane Rodriquez,Chilton,57.15,111.13,65.77,120.2,297.1,Single-ply,SBD,M
Boys,59.87,DQ,Gage Childs,Lorena,56.97,111.13,,,,Single-ply,SBD,M
Boys,67.13,1,Dylan Haralson,Axtell,66.13,226.8,88.45,215.46,530.7,Single-ply,SBD,M
Boys,67.13,2,Dakotta Thomas,Clifton,66.41,170.1,95.25,204.12,469.47,Single-ply,SBD,M
Boys,67.13,3,Lane Fikes,Robinson,66.13,165.56,92.99,208.65,467.2,Single-ply,SBD,M
Boys,67.13,4,Noah Contella,Waco Reicher Catholic,66.59,179.17,99.79,170.1,449.06,Single-ply,SBD,M
Boys,67.13,5,Roy Ward,Waco Reicher Catholic,66.5,181.44,88.45,170.1,439.98,Single-ply,SBD,M
Boys,67.13,6,Jacob Rozier,Caldwell,67.13,163.29,88.45,167.83,419.57,Single-ply,SBD,M
Boys,67.13,7,Devin Trevino,Caldwell,61.6,149.69,86.18,149.69,385.55,Single-ply,SBD,M
Boys,67.13,8,Hunter Solano,Waco Reicher Catholic,64.59,138.35,79.38,158.76,376.48,Single-ply,SBD,M
Boys,74.84,9,Reed Kilpatrick,Lorena,67.31,149.69,81.65,145.15,376.48,Single-ply,SBD,M
Boys,67.13,10,Aaron Bettge,Waco Reicher Catholic,61.96,136.08,70.31,165.56,371.95,Single-ply,SBD,M
Boys,67.13,11,Harley Eldridge,Waco Connally,63.32,136.08,83.91,147.42,367.41,Single-ply,SBD,M
Boys,67.13,12,Nelson Musgrave,Waco Connally,60.96,136.08,74.84,149.69,360.61,Single-ply,SBD,M
Boys,67.13,13,John Botello,Lorena,63.41,145.15,68.04,145.15,358.34,Single-ply,SBD,M
Boys,67.13,14,Valentino White,Chilton,65.5,133.81,74.84,142.88,351.53,Single-ply,SBD,M
Boys,67.13,15,Nick Harris,Lorena,62.23,136.08,83.91,127.01,347,Single-ply,SBD,M
Boys,67.13,16,Kelby Sultemeier,West,65.14,136.08,70.31,131.54,337.93,Single-ply,SBD,M
Boys,67.13,17,Nick Weigant,Whitney,60.42,136.08,72.57,124.74,333.39,Single-ply,SBD,M
Boys,74.84,18,Desmond Harris,Waco Connally,67.31,131.54,65.77,136.08,333.39,Single-ply,SBD,M
Boys,67.13,19,Cj Smith,Crawford,65.05,124.74,72.57,127.01,324.32,Single-ply,SBD,M
Boys,67.13,20,Seth Waters,Gatesville,63.32,115.67,70.31,122.47,308.44,Single-ply,SBD,M
Boys,67.13,21,Grady Shields,Groesbeck,67.13,92.99,61.23,115.67,269.89,Single-ply,SBD,M
Boys,67.13,DQ,Zek Warren,West,66.5,113.4,,,,Single-ply,SBD,M
Boys,67.13,DQ,Billy Manolakis,West,64.59,158.76,99.79,,,Single-ply,SBD,M
Boys,67.13,DQ,Brandon Pelton,Waco La Vega,66.32,,,,,Single-ply,SBD,M
Boys,67.13,DQ,Manuel Rodriguez #4,Robinson,63.78,,,,,Single-ply,SBD,M
Boys,74.84,1,Chase McGhee,Gatesville,71.4,231.33,138.35,219.99,589.67,Single-ply,SBD,M
Boys,74.84,2,Travis Cooke,China Spring,71.94,226.8,142.88,213.19,582.87,Single-ply,SBD,M
Boys,74.84,3,Hunter Work,Robinson,74.21,208.65,145.15,199.58,553.38,Single-ply,SBD,M
Boys,74.84,4,Marco Castro,Waco Reicher Catholic,74.03,201.85,111.13,199.58,512.56,Single-ply,SBD,M
Boys,74.84,5,Raynard Smith,Waco La Vega,74.53,192.78,115.67,199.58,508.02,Single-ply,SBD,M
Boys,74.84,6,Dustin Murphy,Clifton,72.67,185.97,113.4,188.24,487.61,Single-ply,SBD,M
Boys,74.84,7,Elijah Booth,Whitney,74.21,181.44,120.2,181.44,483.08,Single-ply,SBD,M
Boys,74.84,8,Garrett Michael,Whitney,72.94,181.44,86.18,185.97,453.59,Single-ply,SBD,M
Boys,74.84,9,Cole Brunett,Whitney,73.21,161.03,108.86,183.7,453.59,Single-ply,SBD,M
Boys,74.84,10,Juan Villa,Robinson,74.84,167.83,113.4,167.83,449.06,Single-ply,SBD,M
Boys,74.84,11,Edmond Marton,Axtell,74.84,170.1,90.72,181.44,442.25,Single-ply,SBD,M
Boys,74.84,12,Justin Poling,China Spring,74.84,142.88,106.59,181.44,430.91,Single-ply,SBD,M
Boys,74.84,13,Zach Rankin,West,70.49,154.22,97.52,149.69,401.43,Single-ply,SBD,M
Boys,74.84,14,Michael Hallman,Gatesville,70.03,131.54,79.38,140.61,351.53,Single-ply,SBD,M
Boys,74.84,15,Tommy Burns,Lorena,69.85,129.27,74.84,131.54,335.66,Single-ply,SBD,M
Boys,74.84,16,Montana Browder,Bruceville-Eddy,73.48,117.93,70.31,136.08,324.32,Single-ply,SBD,M
Boys,74.84,DQ,Anthony Zeig,Franklin,69.85,163.29,,,,Single-ply,SBD,M
Boys,82.1,1,Martin Balderas,Groesbeck,81.74,231.33,145.15,254.01,630.49,Single-ply,SBD,M
Boys,82.1,2,Alex O'Neill,Waco Reicher Catholic,80.29,190.51,131.54,208.65,530.7,Single-ply,SBD,M
Boys,89.81,3,Kasey Kiphen,Gatesville,82.28,183.7,102.06,190.51,476.27,Single-ply,SBD,M
Boys,82.1,4,Dylan Connell,China Spring,80.38,161.03,102.06,204.12,467.2,Single-ply,SBD,M
Boys,82.1,5,Chris Dingrando,Whitney,82.1,167.83,108.86,190.51,467.2,Single-ply,SBD,M
Boys,82.1,6,Romero Fraire,West,75.84,190.51,111.13,163.29,464.93,Single-ply,SBD,M
Boys,82.1,7,Matt Moseley,Lorena,77.84,154.22,81.65,190.51,426.38,Single-ply,SBD,M
Boys,82.1,8,Manny Garcia,Waco La Vega,78.93,154.22,108.86,154.22,417.3,Single-ply,SBD,M
Boys,82.1,9,Michael Autenrieth,Waco Connally,78.83,156.49,86.18,154.22,396.89,Single-ply,SBD,M
Boys,82.1,10,Stephen Colwell,Waco La Vega,79.83,158.76,68.04,145.15,371.95,Single-ply,SBD,M
Boys,82.1,11,Chance Binder,Lorena,81.01,136.08,90.72,142.88,369.68,Single-ply,SBD,M
Boys,82.1,12,Phillip Berry,Gatesville,77.75,115.67,74.84,129.27,319.78,Single-ply,SBD,M
Boys,82.1,13,Clayton Swonke,Franklin,76.29,88.45,52.16,102.06,242.67,Single-ply,SBD,M
Boys,82.1,DQ,Jaen Lopez,Clifton,75.93,,,,,Single-ply,SBD,M
Boys,89.81,1,Brody Jones,Crawford,84.01,263.08,151.95,229.06,644.1,Single-ply,SBD,M
Boys,89.81,2,Omar Cardoso,Waco Reicher Catholic,88.54,244.94,122.47,251.74,619.15,Single-ply,SBD,M
Boys,89.81,3,Gerald Horne II,Waco La Vega,89.54,235.87,147.42,226.8,610.08,Single-ply,SBD,M
Boys,89.81,4,Darian Robinson,Waco Connally,88.63,204.12,129.27,231.33,564.72,Single-ply,SBD,M
Boys,89.81,5,Ricky Thompson,Robinson,85.09,204.12,117.93,229.06,551.11,Single-ply,SBD,M
Boys,89.81,6,Isaiah Gardea,Clifton,87.45,208.65,133.81,195.04,537.51,Single-ply,SBD,M
Boys,99.79,7,Gerald Horne III,Waco La Vega,89.9,208.65,117.93,208.65,535.24,Single-ply,SBD,M
Boys,89.81,8,Zach Koening,China Spring,88.99,217.72,127.01,185.97,530.7,Single-ply,SBD,M
Boys,89.81,9,Cole Anderson,West,84.55,217.72,115.67,190.51,523.9,Single-ply,SBD,M
Boys,89.81,10,Tanner Coone,Axtell,88.63,215.46,124.74,183.7,523.9,Single-ply,SBD,M
Boys,89.81,11,Justin Mosley,Gatesville,84.01,192.78,108.86,170.1,471.74,Single-ply,SBD,M
Boys,89.81,12,Taylor Hull,China Spring,88.09,183.7,111.13,176.9,471.74,Single-ply,SBD,M
Boys,89.81,13,Cody Williams,Lorena,89.54,179.17,113.4,172.37,464.93,Single-ply,SBD,M
Boys,89.81,14,Donnell Jenkins,Bruceville-Eddy,89.81,181.44,102.06,181.44,464.93,Single-ply,SBD,M
Boys,89.81,15,Dillon Van Zandt,Crawford,85.64,179.17,106.59,176.9,462.66,Single-ply,SBD,M
Boys,89.81,16,Caleb Gauer,China Spring,87.82,167.83,117.93,174.63,460.4,Single-ply,SBD,M
Boys,89.81,17,Tyler Pustejovsky,West,85.46,188.24,88.45,172.37,449.06,Single-ply,SBD,M
Boys,89.81,18,Josh Hitchcock,Caldwell,87.09,174.63,92.99,181.44,449.06,Single-ply,SBD,M
Boys,89.81,19,Robert Perez,Waco Reicher Catholic,87.54,181.44,97.52,161.03,439.98,Single-ply,SBD,M
Boys,89.81,20,Cole Pisarcik,Crawford,85.18,174.63,92.99,151.95,419.57,Single-ply,SBD,M
Boys,89.81,21,Dustin Brown,Waco La Vega,82.69,158.76,102.06,156.49,417.3,Single-ply,SBD,M
Boys,89.81,22,Patrick Gonzales,Whitney,86.64,147.42,97.52,158.76,403.7,Single-ply,SBD,M
Boys,89.81,23,Billy Shilling,Axtell,83.01,147.42,70.31,147.42,365.14,Single-ply,SBD,M
Boys,89.81,DQ,Leshaun Cooper,Caldwell,88.63,170.1,,,,Single-ply,SBD,M
Boys,99.79,1,Shaq Walker,Waco La Vega,99.02,249.48,106.59,254.01,610.08,Single-ply,SBD,M
Boys,99.79,2,Tyler Martinez,Axtell,90.54,238.14,127.01,229.06,594.21,Single-ply,SBD,M
Boys,99.79,3,Dalton Symm,China Spring,96.98,226.8,145.15,210.92,582.87,Single-ply,SBD,M
Boys,99.79,4,Jacob Kevil,Crawford,98.25,183.7,124.74,199.58,508.02,Single-ply,SBD,M
Boys,109.77,5,Jason Harris,West,99.84,217.72,108.86,170.1,496.68,Single-ply,SBD,M
Boys,99.79,6,William Wake,Waco La Vega,93.53,183.7,120.2,147.42,451.32,Single-ply,SBD,M
Boys,99.79,7,Nathan Ramirez,Whitney,93.26,156.49,104.33,167.83,428.64,Single-ply,SBD,M
Boys,99.79,8,Jared Simpson,Robinson,94.71,163.29,86.18,167.83,417.3,Single-ply,SBD,M
Boys,99.79,9,Taylor Chiles,West,99.16,154.22,104.33,145.15,403.7,Single-ply,SBD,M
Boys,99.79,10,Adrian Singleterry,Caldwell,91.63,136.08,79.38,136.08,351.53,Single-ply,SBD,M
Boys,109.77,1,Ryan de la Garza,Waco Connally,107.77,290.3,154.22,213.19,657.71,Single-ply,SBD,M
Boys,109.77,2,D'Andre Minnitt,Waco La Vega,101.15,256.28,131.54,254.01,641.83,Single-ply,SBD,M
Boys,109.77,3,Juan Nunez,Caldwell,101.88,249.48,154.22,233.6,637.3,Single-ply,SBD,M
Boys,109.77,4,Shane Sibila,Clifton,109.23,260.82,149.69,224.53,635.03,Single-ply,SBD,M
Boys,109.77,5,Chris Mullens,Clifton,107.32,210.92,136.08,215.46,562.45,Single-ply,SBD,M
Boys,109.77,6,Logan Willenborg,West,107.77,208.65,113.4,204.12,526.17,Single-ply,SBD,M
Boys,109.77,7,Justin Rhyne,Gatesville,105.23,190.51,151.95,174.63,517.1,Single-ply,SBD,M
Boys,109.77,8,Byron Bryant,Waco La Vega,103.42,165.56,124.74,183.7,474,Single-ply,SBD,M
Boys,109.77,9,Kameron Turner,Waco La Vega,107.14,145.15,102.06,163.29,410.5,Single-ply,SBD,M
Boys,109.77,10,Diego Gutierrez,Robinson,102.6,151.95,90.72,161.03,403.7,Single-ply,SBD,M
Boys,109.77,11,Steven Contreras,Groesbeck,103.06,161.03,83.91,154.22,399.16,Single-ply,SBD,M
Boys,109.77,12,Noah Stebens,China Spring,107.5,136.08,95.25,145.15,376.48,Single-ply,SBD,M
Boys,124.74,1,Garrett Brunson,Lorena,114.76,231.33,136.08,197.31,564.72,Single-ply,SBD,M
Boys,124.74,2,Roberto Requena,Caldwell,115.67,204.12,129.27,208.65,542.04,Single-ply,SBD,M
Boys,124.74,3,Arthur Kelley,Whitney,113.85,204.12,115.67,208.65,528.44,Single-ply,SBD,M
Boys,124.74,4,Zak Hudspeth,Gatesville,110.68,210.92,108.86,204.12,523.9,Single-ply,SBD,M
Boys,124.74,5,Blake Kasparian,Crawford,114.03,192.78,120.2,183.7,496.68,Single-ply,SBD,M
Boys,124.74,6,Cody Gohlke,Crawford,112.22,183.7,99.79,181.44,464.93,Single-ply,SBD,M
Boys,124.74,7,Clay Sparks,China Spring,123.83,181.44,88.45,163.29,433.18,Single-ply,SBD,M
Boys,124.74,8,Chris Bullington,Gatesville,115.21,158.76,102.06,163.29,424.11,Single-ply,SBD,M
Boys,124.74,9,Andrew French,Waco Reicher Catholic,116.85,156.49,83.91,181.44,421.84,Single-ply,SBD,M
Boys,124.74,DQ,Garrett Evans,Clifton,123.29,,,,,Single-ply,SBD,M
Boys,124.74+,1,Shane Murphy,Robinson,163.02,299.37,208.65,235.87,743.89,Single-ply,SBD,M
Boys,124.74+,2,Jessie Wilson,Whitney,141.52,272.16,181.44,222.26,675.85,Single-ply,SBD,M
Boys,124.74+,3,Marcus Robinson,Waco Connally,136.26,281.23,138.35,226.8,646.37,Single-ply,SBD,M
Boys,124.74+,4,Marcelo Ramirez,Waco La Vega,137.03,249.48,131.54,258.55,639.57,Single-ply,SBD,M
Boys,124.74+,5,Dwight Holder,Waco La Vega,131.59,281.23,149.69,199.58,630.49,Single-ply,SBD,M
Boys,124.74+,6,Narisco Molina,Waco Connally,132,231.33,111.13,165.56,508.02,Single-ply,SBD,M
Boys,124.74+,7,Cody Harris,Waco La Vega,127.91,188.24,95.25,174.63,458.13,Single-ply,SBD,M
Boys,124.74+,8,Kenneth Crocker,Axtell,139.25,136.08,86.18,142.88,365.14,Single-ply,SBD,M
Boys,,NS,Justin Waits,Chilton,,,,,,Single-ply,SBD,M
Boys,,NS,Cole Thigpen,Chilton,,,,,,Single-ply,SBD,M
Boys,,NS,Damarus Simpson,Chilton,,,,,,Single-ply,SBD,M
Boys,,NS,Allen Phillips,Franklin,,,,,,Single-ply,SBD,M
Boys,,NS,Kizer Bomnskie,Franklin,,,,,,Single-ply,SBD,M
Boys,,NS,Alex Hart,Clifton,,,,,,Single-ply,SBD,M
Boys,,NS,Emiliano Mar,Clifton,,,,,,Single-ply,SBD,M
Boys,,NS,Bo Pearson,Crawford,,,,,,Single-ply,SBD,M
Boys,,NS,Matt Brown #7,Crawford,,,,,,Single-ply,SBD,M
Boys,,NS,Matthew Weatherman,Crawford,,,,,,Single-ply,SBD,M
Boys,,NS,Jesus Tonche,Waco Connally,,,,,,Single-ply,SBD,M
Boys,,NS,JD VanDyke,Groesbeck,,,,,,Single-ply,SBD,M
Boys,,NS,Sterling Cable,Groesbeck,,,,,,Single-ply,SBD,M
Boys,,NS,Robert Anglin,Groesbeck,,,,,,Single-ply,SBD,M
