Division,WeightClassKg,Place,Name,Team,BodyweightKg,Best3SquatKg,Best3BenchKg,Best3DeadliftKg,TotalKg,Equipment,Event,Sex
Boys,55.79,1,Micheal Galvan,Azle,51.8,90.72,38.56,111.13,240.4,Single-ply,SBD,M
Boys,51.71,2,Trey Johnson,Springtown,51.21,90.72,45.36,92.99,229.06,Single-ply,SBD,M
Boys,51.71,3,Kyle Hendrix,Weatherford,46.04,79.38,54.43,81.65,215.46,Single-ply,SBD,M
Boys,51.71,4,Dennis Mema,Saginaw,44.91,61.23,34.02,81.65,176.9,Single-ply,SBD,M
Boys,59.87,1,Nick Thomas #4,Weatherford,55.97,99.79,68.04,124.74,292.57,Single-ply,SBD,M
Boys,59.87,1,Demetrius Hutcherson,Azle,59.78,174.63,77.11,167.83,419.57,Single-ply,SBD,M
Boys,67.13,2,Chase Lynn,Springtown,60.06,158.76,83.91,172.37,415.04,Single-ply,SBD,M
Boys,59.87,3,Jackson Walker,Springtown,58.65,90.72,61.23,120.2,272.16,Single-ply,SBD,M
Boys,67.13,1,Marquis Sanders,Saginaw,62.14,158.76,81.65,165.56,405.97,Single-ply,SBD,M
Boys,67.13,2,Scott Welch,Weatherford,63.64,156.49,83.91,158.76,399.16,Single-ply,SBD,M
Boys,67.13,3,Chase McBay,Azle,62.6,142.88,72.57,167.83,383.29,Single-ply,SBD,M
Boys,67.13,4,Giancarlo Gonzales,Saginaw,61.23,138.35,70.31,147.42,356.07,Single-ply,SBD,M
Boys,67.13,5,Sawyer Wachel,Saginaw,60.78,140.61,72.57,131.54,344.73,Single-ply,SBD,M
Boys,67.13,6,Jacob Gray,Weatherford,60.15,124.74,68.04,131.54,324.32,Single-ply,SBD,M
Boys,74.84,7,Chanse Lee,Springtown,67.36,117.93,77.11,124.74,319.78,Single-ply,SBD,M
Boys,67.13,8,Phillip Schneider,Springtown,66.36,111.13,81.65,124.74,317.51,Single-ply,SBD,M
Boys,74.84,1,Billy Chappell,Springtown,74.34,204.12,99.79,217.72,521.63,Single-ply,SBD,M
Boys,74.84,2,Juan Diaz,Saginaw,73.94,195.04,120.2,204.12,519.36,Single-ply,SBD,M
Boys,74.84,3,Thomas Tyre,Springtown,72.12,204.12,97.52,197.31,498.95,Single-ply,SBD,M
Boys,82.1,4,Carlos Vasquez,Springtown,74.98,197.31,102.06,172.37,471.74,Single-ply,SBD,M
Boys,74.84,5,Lewis Blackwell,Saginaw,72.12,192.78,102.06,158.76,453.59,Single-ply,SBD,M
Boys,74.84,6,James Murray,Springtown,71.21,172.37,95.25,165.56,433.18,Single-ply,SBD,M
Boys,74.84,7,Josh Williams,Azle,71.53,183.7,79.38,147.42,410.5,Single-ply,SBD,M
Boys,74.84,8,Derek Masterson,Azle,72.53,149.69,90.72,167.83,408.23,Single-ply,SBD,M
Boys,74.84,9,Tim Ramon,Azle,73.98,167.83,81.65,158.76,408.23,Single-ply,SBD,M
Boys,74.84,10,Taylor Moss,Weatherford,68.04,163.29,83.91,142.88,390.09,Single-ply,SBD,M
Boys,74.84,11,Keith Cox,Saginaw,74.84,140.61,88.45,149.69,378.75,Single-ply,SBD,M
Boys,82.1,1,Manny Rodriguez,Saginaw,80.74,208.65,124.74,222.26,555.65,Single-ply,SBD,M
Boys,82.1,2,Cesar Lino,Azle,78.06,185.97,111.13,190.51,487.61,Single-ply,SBD,M
Boys,82.1,3,Jacob Ramirez,Saginaw,80.29,181.44,102.06,185.97,469.47,Single-ply,SBD,M
Boys,82.1,4,Kyle Peter,Azle,79.38,185.97,102.06,179.17,467.2,Single-ply,SBD,M
Boys,82.1,5,Russell Abrams,Saginaw,76.2,183.7,111.13,163.29,458.13,Single-ply,SBD,M
Boys,82.1,6,Frankie Valenzuela,Weatherford,81.83,165.56,104.33,188.24,458.13,Single-ply,SBD,M
Boys,82.1,7,Anthony Robinson,Weatherford,81.69,181.44,102.06,163.29,446.79,Single-ply,SBD,M
Boys,82.1,8,Colby Moore,Springtown,81.19,174.63,106.59,158.76,439.98,Single-ply,SBD,M
Boys,82.1,9,Colton Hall,Azle,81.06,151.95,102.06,158.76,412.77,Single-ply,SBD,M
Boys,82.1,10,Raymond Huntley,Azle,78.24,111.13,83.91,136.08,331.12,Single-ply,SBD,M
Boys,82.1,DQ,Chance Morrison,Azle,80.74,147.42,,170.1,,Single-ply,SBD,M
Boys,89.81,1,Russell Murphy,Saginaw,89.81,226.8,147.42,210.92,585.13,Single-ply,SBD,M
Boys,89.81,2,Cody Cullwell,Azle,84.37,183.7,142.88,201.85,528.44,Single-ply,SBD,M
Boys,89.81,3,Caleb Keys,Springtown,87.32,192.78,113.4,181.44,487.61,Single-ply,SBD,M
Boys,89.81,4,Sade Hodge,Weatherford,88.59,183.7,106.59,195.04,485.34,Single-ply,SBD,M
Boys,89.81,5,Wesley May,Weatherford,86.91,170.1,88.45,185.97,444.52,Single-ply,SBD,M
Boys,89.81,6,Jordan Moore,Azle,89.36,163.29,81.65,163.29,408.23,Single-ply,SBD,M
Boys,89.81,7,Dylon Englert,Springtown,89.49,147.42,79.38,158.76,385.55,Single-ply,SBD,M
Boys,89.81,DQ,Blake Shaw,Weatherford,84.59,,,,,Single-ply,SBD,M
Boys,89.81,DQ,Cole Well,Azle,84.37,,,,,Single-ply,SBD,M
Boys,99.79,1,Benito Galvan,Azle,97.43,206.38,122.47,199.58,528.44,Single-ply,SBD,M
Boys,99.79,2,Bobby Suber,Saginaw,99.34,210.92,117.93,192.78,521.63,Single-ply,SBD,M
Boys,99.79,3,Brandon Stein,Springtown,94.35,195.04,142.88,151.95,489.88,Single-ply,SBD,M
Boys,99.79,4,Kolyn Waldrop,Springtown,99.02,181.44,113.4,190.51,485.34,Single-ply,SBD,M
Boys,99.79,5,Cole Clifton,Springtown,96.62,185.97,106.59,181.44,474,Single-ply,SBD,M
Boys,99.79,6,Josh Finholt,Weatherford,94.35,163.29,111.13,190.51,464.93,Single-ply,SBD,M
Boys,99.79,7,Blaze Sexton,Weatherford,92.99,156.49,124.74,147.42,428.64,Single-ply,SBD,M
Boys,99.79,8,Landon Todd,Azle,95.71,151.95,102.06,170.1,424.11,Single-ply,SBD,M
Boys,99.79,9,Justin Scarbro,Azle,98.88,154.22,97.52,158.76,410.5,Single-ply,SBD,M
Boys,99.79,10,Johnny Crow,Azle,93.44,136.08,86.18,158.76,381.02,Single-ply,SBD,M
Boys,99.79,11,Charles Emmert,Springtown,91.17,136.08,90.72,129.27,356.07,Single-ply,SBD,M
Boys,99.79,DQ,Jordan Hernandez,Saginaw,90.72,181.44,102.06,,,Single-ply,SBD,M
Boys,109.77,1,Brandon Fricke,Azle,109.68,226.8,158.76,249.48,635.03,Single-ply,SBD,M
Boys,109.77,2,Zach Harriman,Weatherford,105.6,199.58,138.35,199.58,537.51,Single-ply,SBD,M
Boys,109.77,3,Destin Dorsett,Weatherford,106.59,188.24,124.74,179.17,492.15,Single-ply,SBD,M
Boys,109.77,4,Brady McDowell,Azle,102.06,163.29,92.99,176.9,433.18,Single-ply,SBD,M
Boys,109.77,5,Hayden Glennon,Azle,106.59,142.88,111.13,170.1,424.11,Single-ply,SBD,M
Boys,109.77,6,Logan Todd,Azle,104.55,151.95,99.79,127.01,378.75,Single-ply,SBD,M
Boys,124.74,1,Andrew Cape,Weatherford,123.47,299.37,163.29,226.8,689.46,Single-ply,SBD,M
Boys,124.74,2,Chris Patton,Springtown,123.38,219.99,129.27,199.58,548.85,Single-ply,SBD,M
Boys,124.74,3,Eric Gaucin,Springtown,117.53,215.46,111.13,185.97,512.56,Single-ply,SBD,M
Boys,124.74,4,Mario Medina,Saginaw,119.29,204.12,113.4,181.44,498.95,Single-ply,SBD,M
Boys,124.74,5,Jesse Melendez,Azle,114.31,197.31,113.4,183.7,494.42,Single-ply,SBD,M
Boys,124.74,6,Gavin Edgecomb,Springtown,110.68,204.12,92.99,176.9,474,Single-ply,SBD,M
Boys,124.74,7,Sammy Stephens,Weatherford,115.8,165.56,113.4,167.83,446.79,Single-ply,SBD,M
Boys,124.74+,1,Alec Puente,Azle,133.36,231.33,124.74,213.19,569.26,Single-ply,SBD,M
Boys,124.74+,2,Corbin Bullington,Azle,157.85,215.46,127.01,208.65,551.11,Single-ply,SBD,M
Boys,124.74+,3,Kayson Linehan,Weatherford,129.41,206.38,120.2,185.97,512.56,Single-ply,SBD,M
Boys,124.74+,4,Lincoln Roquemore,Azle,130.18,210.92,113.4,183.7,508.02,Single-ply,SBD,M
Boys,124.74+,5,Jordan Gray,Weatherford,127.37,172.37,117.93,158.76,449.06,Single-ply,SBD,M
