Sex,WeightClassKg,BodyweightKg,State,Division,Event,Equipment,Name,Best3SquatKg,Best3BenchKg,Best3DeadliftKg,TotalKg,Place
F,56,53.07,VA,Juniors,SBD,Wraps,Chelsea Weeks,83.91,61.23,111.13,256.28,1
F,60,56.7,VA,Masters 40-44,SBD,Wraps,Suzanne Mackewicz,43.09,38.56,74.84,156.49,1
F,60,59.42,VA,Open,SBD,Wraps,Kathleen Hoff,102.06,70.31,124.74,297.1,1
F,67.5,64.41,VA,Juniors,SBD,Wraps,Aubrey Webb,131.54,58.97,138.35,328.85,1
F,67.5,67.13,VA,Open,SBD,Wraps,Andrea Murray,111.13,61.23,129.27,301.64,1
F,67.5,62.14,VA,Open,SBD,Wraps,Kristina Wojtaszek,81.65,47.63,102.06,231.33,2
F,67.5,64.41,VA,Open,SBD,Wraps,Jaimie Carleo,77.11,43.09,108.86,229.06,3
F,75,74.39,VA,Masters 45-49,SBD,Wraps,Jill Joscelyn Smith,79.38,47.63,102.06,229.06,1
F,82.5,79.38,VA,Open,SBD,Wraps,Alexandra Trypuc,99.79,47.63,131.54,278.96,1
F,82.5,82.1,VA,Open,SBD,Wraps,Jaime Jackson,172.37,90.72,190.51,453.59,1
F,82.5,78.93,VA,Open,SBD,Wraps,Blair Farris,81.65,61.23,108.86,251.74,2
F,90+,98.88,NC,Open,SBD,Wraps,Carol Bennett,174.63,117.93,183.7,476.27,1
F,90+,95.25,VA,Open,SBD,Wraps,Jenn Davis,74.84,47.63,115.67,238.14,2
M,60,58.06,,Teenage 16-17,SBD,Wraps,Dylan Davis,104.33,81.65,156.49,342.46,1
M,67.5,66.22,VA,Open,SBD,Wraps,Peter Nguyen #6,158.76,92.99,183.7,435.45,1
M,75,73.94,VA,Juniors,SBD,Wraps,Mason Marcum,206.38,145.15,219.99,571.53,1
M,75,71.21,VA,Juniors,SBD,Wraps,Tyler Stiles,158.76,113.4,204.12,476.27,2
M,75,74.84,VA,Open,SBD,Wraps,Brian Fox,195.04,142.88,206.38,544.31,1
M,75,70.31,VA,Open,SBD,Wraps,Dementinez Watts,183.7,124.74,197.31,505.76,2
M,82.5,82.1,VA,Open,SBD,Wraps,Larry Dyles-Smith,249.48,172.37,249.48,671.32,1
M,82.5,80.74,VA,Open,SBD,Wraps,David Flees,219.99,147.42,206.38,573.79,2
M,82.5,81.65,VA,Open,SBD,Wraps,Christian Diaz,167.83,127.01,233.6,528.44,3
M,82.5,80.74,MD,Open,SBD,Wraps,Stephen Kelly,149.69,102.06,201.85,453.59,4
M,90,88.9,VA,Juniors,SBD,Wraps,James Hennessey,165.56,111.13,229.06,505.76,1
M,90,89.36,VA,Masters 40-44,SBD,Wraps,Glenn Leaks,204.12,145.15,240.4,589.67,1
M,90,89.81,VA,Open,SBD,Wraps,Jordan Feigenbaum,256.28,174.63,297.1,728.02,1
M,90,89.36,MD,Open,SBD,Wraps,Matt Wagner,288.03,188.24,249.48,725.75,2
M,90,88.9,VA,Open,SBD,Wraps,John Spain,238.14,161.03,256.28,655.44,3
M,90,89.36,VA,Open,SBD,Wraps,Glenn Leaks,204.12,145.15,240.4,589.67,4
M,90,88,VA,Open,SBD,Wraps,Chezare Turner,181.44,131.54,272.16,585.13,5
M,90,88.9,VA,Open,SBD,Wraps,Eugene Leftwich,181.44,108.86,249.48,539.77,6
M,90,88.45,VA,Open,SBD,Wraps,Jerry McIntyre,190.51,124.74,219.99,535.24,7
M,100,97.07,VA,Teenage 16-17,SBD,Wraps,Kyle Mann,215.46,117.93,242.67,576.06,1
M,100,96.62,VA,Juniors,SBD,Wraps,Paul Trufant,92.99,92.99,165.56,351.53,1
M,100,97.98,MD,Masters 40-44,SBD,Wraps,Josh Green,172.37,108.86,219.99,501.22,1
M,100,91.17,VA,Masters 45-49,SBD,Wraps,Henry Gerard,258.55,154.22,247.21,659.98,1
M,100,94.8,VA,Masters 55-59,SBD,Wraps,Richard Wanamaker,,,,,DQ
M,100,97.98,VA,Masters 45-49,SBD,Wraps,Raymond Stevenson,238.14,190.51,254.01,682.66,1
M,100,97.52,VA,Open,SBD,Wraps,Matthew Scherbik,242.67,174.63,283.5,700.8,1
M,100,97.98,VA,Open,SBD,Wraps,Raymond Stevenson,238.14,190.51,254.01,682.66,2
M,100,94.35,VA,Open,SBD,Wraps,Brendon Curry,233.6,188.24,249.48,671.32,3
M,100,97.07,VA,Open,SBD,Wraps,Stephen Cauley,217.72,149.69,272.16,639.57,4
M,100,99.79,VA,Open,SBD,Wraps,Kyle Davis,215.46,133.81,256.28,605.55,5
M,100,97.07,VA,Open,SBD,Wraps,Austin McNeill,142.88,174.63,258.55,576.06,6
M,100,99.79,VA,Open,SBD,Wraps,Jay Jones,210.92,115.67,217.72,544.31,7
M,110,105.23,VA,Teenage 18-19,SBD,Wraps,Dylan Ward,224.53,158.76,247.21,630.49,1
M,110,100.7,MD,Juniors,SBD,Wraps,Jefferson Calloway,290.3,195.04,278.96,764.3,1
M,110,103.42,VA,Juniors,SBD,Wraps,Wendel Hill,210.92,,,,DQ
M,110,108.86,VA,Masters 40-44,SBD,Wraps,Scott Davis,215.46,170.1,215.46,601.01,1
M,110,109.32,MD,Open,SBD,Wraps,Josh Smith #3,362.87,226.8,317.51,907.18,1
M,110,108.41,VA,Open,SBD,Wraps,Ron Walling,312.98,215.46,333.39,861.83,2
M,110,103.42,VA,Open,SBD,Wraps,Roy Andrew,213.19,156.49,265.35,635.03,3
M,110,107.5,VA,Open,SBD,Wraps,Trey McNeil,219.99,142.88,251.74,614.62,4
M,118,116.12,VA,Masters 60-64,SBD,Wraps,Ed Stine,185.97,145.15,199.58,530.7,1
M,118,116.57,VA,Open,SBD,Wraps,Dustin Sixkiller,249.48,183.7,272.16,705.34,1
M,118,112.04,VA,Open,SBD,Wraps,Omar Aminzay,226.8,142.88,226.8,596.47,2
M,118,115.67,VA,Open,SBD,Wraps,Drew Barnard,206.38,124.74,249.48,580.6,3
M,118,113.4,VA,Open,SBD,Wraps,Brett Woldanski,213.19,117.93,229.06,560.19,4
M,125,122.47,VA,Open,SBD,Wraps,Brian Jones,272.16,176.9,299.37,748.43,1
M,125,122.02,NC,Open,SBD,Wraps,Thad Forehand,174.63,124.74,249.48,548.85,2
M,140,126.1,NC,Open,SBD,Wraps,Christopher Wichtl,378.75,258.55,362.87,1000.17,1
M,140,132.9,VA,Open,SBD,Wraps,Jayme Campbell,299.37,197.31,328.85,825.54,2
M,140,139.71,VA,Open,SBD,Wraps,Dan Davis,242.67,129.27,272.16,644.1,3
M,140,139.71,VA,Open,SBD,Wraps,Tom Hinnefeld,294.84,,,,DQ
M,140+,141.97,VA,Open,SBD,Wraps,Roscoe Ware,292.57,240.4,328.85,861.83,1
M,140+,158.3,VA,Open,SBD,Wraps,Aaron Mehl,,,,,DQ
M,82.5,78.93,VA,Open,SBD,Multi-ply,Steve Broy,183.7,111.13,206.38,501.22,1
M,90,89.81,VA,Masters 40-44,SBD,Multi-ply,George Lane,326.59,254.01,281.23,861.83,1
M,90,89.81,VA,Open,SBD,Multi-ply,George Lane,326.59,254.01,281.23,861.83,1
M,110,102.51,VA,Open,SBD,Multi-ply,Matt MacCarthur,,,,,DQ
M,110,108.86,VA,Open,SBD,Single-ply,Tony Horvath,290.3,208.65,272.16,771.11,1
M,110,108.86,VA,Masters 40-44,SBD,Single-ply,Tony Horvath,290.3,208.65,272.16,771.11,1
M,110,107.95,VA,Masters 65-69,SBD,Single-ply,Michael Nichols #1,174.63,120.2,199.58,494.42,1
M,82.5,82.1,VA,Open,B,Raw,Jessie Leon,,142.88,,142.88,1
M,82.5,80.29,VA,Masters 50-54,B,Raw,Richard Alpert,,142.88,,142.88,1
M,90,89.81,VA,Open,B,Raw,Brandon Perdue #1,,199.58,,199.58,1
M,140+,145.15,NC,Open,B,Raw,Anthony Trzeciak,,,,,DQ
M,118,112.49,WV,Masters 50-54,B,Single-ply,Randy Robinson,,285.76,,285.76,1
M,118,116.57,WV,Masters 45-49,B,Multi-ply,Shawn Keene,,247.21,,247.21,1
M,140+,,VA,Open,BD,Raw,Aaron Mehl,,147.42,,,DQ
M,125,,MD,Open,BD,Multi-ply,Mike Hedlesky,,,,,DQ
